…
df_select
```

```
## # A tibble: 603 × 35
##    patient_code sex        age education education_level pain_intensity duration
##           <dbl> <dbl+lb> <dbl> <dbl+lbl> <dbl+lbl>                <dbl>    <dbl>
##  1          498 2 [Vrou…    64 2 [mavo]  0 [Low eductio…              8        4
##  2          766 2 [Vrou…    32 4 [havo]  0 [Low eductio…              7        2
##  3          402 1 [Man]     51 1 [Basis] 0 [Low eductio…              7        5
##  4          669 1 [Man]     29 7 [hbo]   1 [High educti…              5       10
##  5          764 1 [Man]     35 7 [hbo]   1 [High educti…              4        5
##  6          762 2 [Vrou…    46 8 [wo]    1 [High educti…              5        4
##  7          401 1 [Man]     50 7 [hbo]   1 [High educti…              2       10
##  8          763 2 [Vrou…    49 3 [vbo]   0 [Low eductio…              6        4
##  9          497 1 [Man]     46 5 [vwo]   0 [Low eductio…              3        2
## 10          496 1 [Man]     60 7 [hbo]   1 [High educti…             10        4
## # ℹ 593 more rows
## # ℹ 28 more variables: recurrence <dbl+lbl>, wide_spread_pain <dbl+lbl>,
## #   headache <dbl+lbl>, disability <dbl>, work <dbl+lbl>,
## #   work_happiness <dbl+lbl>, work_satisfaction <dbl+lbl>,
## #   posture_work <dbl+lbl>, physical_activity <dbl+lbl>, smoking <dbl+lbl>,
## #   alcohol <dbl+lbl>, bmi <dbl>, sleep_quality <dbl+lbl>,
## #   catastrophizing <dbl>, duration_beliefs <dbl>, concerns <dbl>, …
```
…
<img src="01_eda_files/figure-html/unnamed-chunk-8-1.png" width="672" />

### Get number of missings per variable (n and %)

```r
miss_var_summary(df_select)
```

```
## # A tibble: 35 × 3
##    variable          n_miss pct_miss
##    <chr>              <int>    <dbl>
##  1 painint_3months      224    37.1 
##  2 painint_6months      212    35.2 
##  3 painint_6weeks       154    25.5 
##  4 posture_work         117    19.4 
##  5 work_happiness       115    19.1 
##  6 work_satisfaction    113    18.7 
##  7 education             16     2.65
##  8 education_level       16     2.65
##  9 identity_beliefs      14     2.32
## 10 bmi                   12     1.99
## # ℹ 25 more rows
```
…
```r
# Get number of missings per observation (n and %)
miss_case_summary(df_select)
```

```
## # A tibble: 603 × 3
##     case n_miss pct_miss
##    <int>  <int>    <dbl>
##  1   603     26     74.3
##  2   602     14     40  
##  3   600     10     28.6
##  4    42      9     25.7
##  5   340      9     25.7
##  6    24      8     22.9
##  7   208      8     22.9
##  8   510      8     22.9
##  9   476      7     20  
## 10    18      6     17.1
## # ℹ 593 more rows
```
…
  ## return df
  return(at)
  
  }

map_df(
  .x = 1:ncol(df_select),
  .f = get_spss_coding,
  df = df_select
) -> labelling
labelling
```

```
## # A tibble: 47 × 3
##    name  value var_name 
##    <chr> <chr> <chr>    
##  1 Man   1     sex      
##  2 Vrouw 2     sex      
##  3 Basis 1     education
##  4 mavo  2     education
##  5 vbo   3     education
##  6 havo  4     education
##  7 vwo   5     education
##  8 mwo   6     education
##  9 hbo   7     education
## 10 wo    8     education
## # ℹ 37 more rows
```
…
