Part 3 Statistical exploration | Chronic neck pain - Data Analysis
…
3.8 Adding baseline as time=0

df_imp_long |>
  group_by(patient_code) |>
  reframe(painint_score = unique(pain_intensity)) |>
  mutate(time_days = 0,
         time_days = as_factor(time_days)) -> df_baseline

## join with original
#df_imp_long_subset <- df_imp_long |>
#   dplyr::select(patient_code, painint_score, time_days, is_painint_chronic)

df_baseline

## # A tibble: 603 × 3
##    patient_code painint_score time_days
##           <dbl>         <dbl> <fct>    
##  1          100             8 0        
##  2          101             6 0        
##  3          102             7 0        
##  4          103             7 0        
##  5          104             5 0        
##  6          106             2 0        
##  7          107             7 0        
##  8          108             3 0        
##  9          109             2 0        
## 10          110             6 0        
## # ℹ 593 more rows
…
